<svg width="110px" height="26px" viewBox="0 0 110 26" version="1.1" xmlns="http://www.w3.org/2000/svg" xmlns:xlink="http://www.w3.org/1999/xlink">
    <g id="Page-1" stroke="none" stroke-width="1" fill="none" fill-rule="evenodd">
        <g id="Batch-Command" transform="translate(-533.000000, -362.000000)">
            <rect id="Rectangle" fill="#262524" fill-rule="nonzero" x="533" y="362" width="110" height="26" rx="10"></rect>
            <text id="Occupied" font-family="Poppins-SemiBold, Poppins" font-size="12" font-weight="500" letter-spacing="0.342857143" fill="#BBBBBB">
                <tspan x="547" y="380">Occupied</tspan>
            </text>
            <polygon id="Path" fill="#F2A900" fill-rule="nonzero" points="624 380 630.062 373.25 617.938 373.25"></polygon>
        </g>
    </g>
</svg>