<?xml version="1.0" encoding="UTF-8"?>
<svg width="155px" height="24px" viewBox="0 0 155 24" version="1.1" xmlns="http://www.w3.org/2000/svg" xmlns:xlink="http://www.w3.org/1999/xlink">
    <title>Group 14</title>
    <g id="Page-1" stroke="none" stroke-width="1" fill="none" fill-rule="evenodd">
        <g id="Appliance-Copy-9" transform="translate(-372.000000, -546.000000)">
            <g id="Group-12" transform="translate(226.000000, 300.000000)">
                <g id="Group-14" transform="translate(146.500000, 246.500000)">
                    <polygon id="Path" fill="#2F2F2F" points="137.728 14.5 144.09 9.5 131.366 9.5"></polygon>
                    <rect id="Rectangle" stroke="#000000" x="0" y="0" width="154" height="23" rx="11.5"></rect>
                    <path d="M20.001,15.5 L18.591,15.5 L15.431,10.7 L15.431,15.5 L14.021,15.5 L14.021,8.44 L15.431,8.44 L18.591,13.28 L18.591,8.44 L20.001,8.44 L20.001,15.5 Z M23.836,9.89 C24.376,9.89 24.86,10.003 25.286,10.23 C25.72,10.457 26.06,10.787 26.306,11.22 C26.553,11.647 26.676,12.15 26.676,12.73 C26.676,13.31 26.553,13.813 26.306,14.24 C26.06,14.667 25.72,14.997 25.286,15.23 C24.86,15.457 24.376,15.57 23.836,15.57 C23.296,15.57 22.81,15.457 22.376,15.23 C21.95,14.997 21.613,14.667 21.366,14.24 C21.12,13.813 20.996,13.31 20.996,12.73 C20.996,12.15 21.12,11.647 21.366,11.22 C21.613,10.787 21.95,10.457 22.376,10.23 C22.81,10.003 23.296,9.89 23.836,9.89 Z M23.836,11.11 C23.443,11.11 23.11,11.25 22.836,11.53 C22.563,11.803 22.426,12.203 22.426,12.73 C22.426,13.257 22.563,13.66 22.836,13.94 C23.11,14.213 23.443,14.35 23.836,14.35 C24.23,14.35 24.563,14.213 24.836,13.94 C25.11,13.66 25.246,13.257 25.246,12.73 C25.246,12.203 25.11,11.803 24.836,11.53 C24.563,11.25 24.23,11.11 23.836,11.11 Z M29.083,11.02 C29.29,10.667 29.563,10.39 29.903,10.19 C30.243,9.983 30.623,9.88 31.043,9.88 L31.043,11.39 L30.633,11.39 C29.6,11.39 29.083,11.87 29.083,12.83 L29.083,15.5 L27.673,15.5 L27.673,9.96 L29.083,9.96 L29.083,11.02 Z M38.873,9.88 C39.547,9.88 40.077,10.09 40.463,10.51 C40.857,10.923 41.053,11.513 41.053,12.28 L41.053,15.5 L39.653,15.5 L39.653,12.44 C39.653,12.013 39.543,11.687 39.323,11.46 C39.11,11.227 38.813,11.11 38.433,11.11 C38.04,11.11 37.727,11.233 37.493,11.48 C37.26,11.727 37.143,12.087 37.143,12.56 L37.143,15.5 L35.743,15.5 L35.743,12.44 C35.743,12.013 35.633,11.687 35.413,11.46 C35.2,11.227 34.903,11.11 34.523,11.11 C34.13,11.11 33.817,11.233 33.583,11.48 C33.35,11.727 33.233,12.087 33.233,12.56 L33.233,15.5 L31.823,15.5 L31.823,9.96 L33.233,9.96 L33.233,11.01 C33.38,10.65 33.61,10.373 33.923,10.18 C34.243,9.98 34.613,9.88 35.033,9.88 C35.48,9.88 35.867,9.987 36.193,10.2 C36.527,10.413 36.777,10.72 36.943,11.12 C37.117,10.74 37.373,10.44 37.713,10.22 C38.06,9.993 38.447,9.88 38.873,9.88 Z M44.462,9.89 C44.929,9.89 45.329,10 45.662,10.22 C45.995,10.44 46.232,10.737 46.372,11.11 L46.372,9.96 L47.772,9.96 L47.772,15.5 L46.372,15.5 L46.372,14.34 C46.232,14.713 45.995,15.013 45.662,15.24 C45.329,15.46 44.929,15.57 44.462,15.57 C43.995,15.57 43.575,15.457 43.202,15.23 C42.829,15.003 42.535,14.677 42.322,14.25 C42.115,13.817 42.012,13.31 42.012,12.73 C42.012,12.15 42.115,11.647 42.322,11.22 C42.535,10.787 42.829,10.457 43.202,10.23 C43.575,10.003 43.995,9.89 44.462,9.89 Z M44.902,11.12 C44.462,11.12 44.109,11.263 43.842,11.55 C43.575,11.837 43.442,12.23 43.442,12.73 C43.442,13.23 43.575,13.623 43.842,13.91 C44.109,14.19 44.462,14.33 44.902,14.33 C45.329,14.33 45.679,14.187 45.952,13.9 C46.232,13.607 46.372,13.217 46.372,12.73 C46.372,12.237 46.232,11.847 45.952,11.56 C45.679,11.267 45.329,11.12 44.902,11.12 Z M50.46,8.1 L50.46,15.5 L49.05,15.5 L49.05,8.1 L50.46,8.1 Z" id="Shape" fill="#2F2F2F" fill-rule="nonzero"></path>
                </g>
            </g>
        </g>
    </g>
</svg>