<?xml version="1.0" encoding="UTF-8"?>
<svg width="103px" height="39px" viewBox="0 0 103 39" version="1.1" xmlns="http://www.w3.org/2000/svg" xmlns:xlink="http://www.w3.org/1999/xlink">
    <title>Group 13</title>
    <g id="Page-1" stroke="none" stroke-width="1" fill="none" fill-rule="evenodd">
        <g id="Appliance-Copy-15" transform="translate(-1139.000000, -378.000000)">
            <g id="Group-11" transform="translate(593.000000, 378.000000)">
                <g id="Group-13" transform="translate(546.245000, 0.312000)">
                    <line x1="67" y1="10.5" x2="101" y2="10.5" id="Path" stroke="#901515" stroke-width="3" stroke-linecap="square"></line>
                    <line x1="67" y1="29" x2="101" y2="29" id="Path" stroke="#1179A7" stroke-width="3" stroke-linecap="square" stroke-dasharray="4"></line>
                    <text id="Washing" font-family="Poppins-Bold, Poppins" font-size="12" font-weight="bold" fill="#901515">
                        <tspan x="1.423" y="13.688">Washing</tspan>
                    </text>
                    <text id="Rinsing" font-family="Poppins-Bold, Poppins" font-size="12" font-weight="bold" fill="#1179A7">
                        <tspan x="10.831" y="33.188">Rinsing</tspan>
                    </text>
                </g>
            </g>
        </g>
    </g>
</svg>