<?xml version="1.0" encoding="UTF-8"?>
<svg width="80px" height="23px" viewBox="0 0 80 23" version="1.1" xmlns="http://www.w3.org/2000/svg" xmlns:xlink="http://www.w3.org/1999/xlink">
    <title>Group 15</title>
    <g id="Page-1" stroke="none" stroke-width="1" fill="none" fill-rule="evenodd">
        <g id="Appliance-Copy-9" transform="translate(-449.000000, -598.000000)" fill-rule="nonzero">
            <g id="Group-12" transform="translate(226.000000, 300.000000)">
                <g id="Group-15" transform="translate(223.588000, 298.000000)">
                    <path d="M4.942,7.976 C5.866,7.976 6.701,8.191 7.448,8.62 C8.204,9.049 8.797,9.651 9.226,10.426 C9.665,11.191 9.884,12.059 9.884,13.03 C9.884,14.001 9.665,14.873 9.226,15.648 C8.797,16.423 8.204,17.025 7.448,17.454 C6.701,17.883 5.866,18.098 4.942,18.098 C4.018,18.098 3.178,17.883 2.422,17.454 C1.675,17.025 1.083,16.423 0.644,15.648 C0.215,14.873 -1.77635684e-15,14.001 -1.77635684e-15,13.03 C-1.77635684e-15,12.059 0.215,11.191 0.644,10.426 C1.083,9.651 1.675,9.049 2.422,8.62 C3.178,8.191 4.018,7.976 4.942,7.976 Z M4.942,9.796 C4.363,9.796 3.855,9.927 3.416,10.188 C2.977,10.449 2.632,10.827 2.38,11.322 C2.137,11.807 2.016,12.377 2.016,13.03 C2.016,13.683 2.137,14.257 2.38,14.752 C2.632,15.237 2.977,15.611 3.416,15.872 C3.855,16.133 4.363,16.264 4.942,16.264 C5.521,16.264 6.029,16.133 6.468,15.872 C6.907,15.611 7.247,15.237 7.49,14.752 C7.742,14.257 7.868,13.683 7.868,13.03 C7.868,12.377 7.742,11.807 7.49,11.322 C7.247,10.827 6.907,10.449 6.468,10.188 C6.029,9.927 5.521,9.796 4.942,9.796 Z M19.741,18 L17.767,18 L13.343,11.28 L13.343,18 L11.369,18 L11.369,8.116 L13.343,8.116 L17.767,14.892 L17.767,8.116 L19.741,8.116 L19.741,18 Z" id="Shape" fill="#00BD78"></path>
                    <rect id="Rectangle" fill="#00BD78" x="29.412" y="0" width="49" height="23" rx="11.5"></rect>
                    <circle id="Oval" fill="#FFFFFF" cx="66.912" cy="11.5" r="9.5"></circle>
                </g>
            </g>
        </g>
    </g>
</svg>