<?xml version="1.0" encoding="utf-8"?>
<!-- Generator: Adobe Illustrator 24.3.0, SVG Export Plug-In . SVG Version: 6.00 Build 0)  -->
<svg version="1.1" id="Layer_1" xmlns="http://www.w3.org/2000/svg" xmlns:xlink="http://www.w3.org/1999/xlink" x="0px" y="0px"
	 width="16px" height="9px" viewBox="0 0 16 9" style="enable-background:new 0 0 16 9;" xml:space="preserve">
<style type="text/css">
	.st0{fill:#54544F;}
</style>
<g id="Page-1">
	<g id="Batch-Command" transform="translate(-578.000000, -435.000000)">
		<polygon id="Path" class="st0" points="586,444 578,435 594,435 		"/>
	</g>
</g>
</svg>
