<?xml version="1.0" encoding="UTF-8"?>
<svg width="126px" height="30px" viewBox="0 0 126 30" version="1.1" xmlns="http://www.w3.org/2000/svg" xmlns:xlink="http://www.w3.org/1999/xlink">
    <title>Group 5</title>
    <g id="Page-1" stroke="none" stroke-width="1" fill="none" fill-rule="evenodd">
        <g id="Batch-Command" transform="translate(-1207.000000, -430.000000)">
            <g id="Group-5" transform="translate(1207.500000, 430.500000)">
                <path d="M0,14.5 C0,6.492 6.49,0 14.5,0 L62,0 L62,29 L14.5,29 C6.49,29 0,22.508 0,14.5 Z" id="Path-Copy-10" stroke="#F2A900" fill="#F2A900" fill-rule="nonzero"></path>
                <path d="M63,0 L110.5,0 C118.51,0 125,6.492 125,14.5 C125,22.508 118.51,29 110.5,29 L63,29 L63,0 Z" id="Path-Copy-17" stroke="#F2A900"></path>
                <text id="Turn-On" font-family="Poppins-Bold, Poppins" font-size="10" font-weight="bold" fill="#262524">
                    <tspan x="11.5" y="18.8333333">Turn On</tspan>
                </text>
                <text id="Turn-Off" font-family="Poppins-Medium, Poppins" font-size="10" font-weight="400" fill="#979797">
                    <tspan x="71.5" y="18.8333333">Turn Off</tspan>
                </text>
            </g>
        </g>
    </g>
</svg>