<?xml version="1.0" encoding="UTF-8"?>
<svg width="127px" height="69px" viewBox="0 0 127 69" version="1.1" xmlns="http://www.w3.org/2000/svg" xmlns:xlink="http://www.w3.org/1999/xlink">
    <title>Group 6</title>
    <g id="Page-1" stroke="none" stroke-width="1" fill="none" fill-rule="evenodd">
        <g id="Batch-Command" transform="translate(-1004.000000, -499.000000)">
            <g id="Group-6" transform="translate(1004.000000, 499.000000)">
                <text id="MODE" font-family="Poppins-Bold, Poppins" font-size="11" font-weight="bold" fill="#FFFFFF">
                    <tspan x="0" y="19.3333333">MODE</tspan>
                </text>
                <text id="TEMP" font-family="Poppins-Bold, Poppins" font-size="11" font-weight="bold" fill="#FFFFFF">
                    <tspan x="0" y="62.3333333">TEMP</tspan>
                </text>
                <rect id="Rectangle" fill="#2D2D2A" fill-rule="nonzero" x="42" y="0" width="85" height="30" rx="15"></rect>
                <polygon id="Path" fill="#F2A900" fill-rule="nonzero" points="113 19 118 13 108 13"></polygon>
                <text id="Mixed" font-family="Poppins-Bold, Poppins" font-size="11" font-weight="bold" fill="#FFFFFF">
                    <tspan x="62" y="19.3333333">Mixed</tspan>
                </text>
                <circle id="Oval" stroke="#F2A900" fill-rule="nonzero" cx="112" cy="59" r="9"></circle>
                <circle id="Oval-Copy" stroke="#F2A900" fill-rule="nonzero" cx="55" cy="59" r="9"></circle>
                <polygon id="Path" fill="#F2A900" fill-rule="nonzero" points="115 59.7176471 112.773109 59.7176471 112.773109 62 111.218487 62 111.218487 59.7176471 109 59.7176471 109 58.2823529 111.218487 58.2823529 111.218487 56 112.773109 56 112.773109 58.2823529 115 58.2823529"></polygon>
                <polygon id="Path" fill="#F2A900" fill-rule="nonzero" points="58 58 58 60 53 60 53 58"></polygon>
                <text id="75°F" font-family="Poppins-Bold, Poppins" font-size="11" font-weight="bold" fill="#FFFFFF">
                    <tspan x="71" y="63.3333333">75°F</tspan>
                </text>
            </g>
        </g>
    </g>
</svg>