<?xml version="1.0" encoding="UTF-8"?>
<svg width="111px" height="238px" viewBox="0 0 111 238" version="1.1" xmlns="http://www.w3.org/2000/svg" xmlns:xlink="http://www.w3.org/1999/xlink">
    <title>Group 9</title>
    <g id="Page-1" stroke="none" stroke-width="1" fill="none" fill-rule="evenodd">
        <g id="Batch-Command" transform="translate(-1224.000000, -672.000000)">
            <g id="Group-9" transform="translate(1224.500000, 672.000000)">
                <path d="M0,93 C0,86.0965517 5.65258065,80.5 12.6290323,80.5 L54,80.5 L54,105.5 L12.6290323,105.5 C5.65258065,105.5 0,99.9034483 0,93 Z" id="Path-Copy-26" stroke="#F2A900" fill="#F2A900" fill-rule="nonzero"></path>
                <path d="M0,137 C0,130.096552 5.65258065,124.5 12.6290323,124.5 L54,124.5 L54,149.5 L12.6290323,149.5 C5.65258065,149.5 0,143.903448 0,137 Z" id="Path-Copy-28" stroke="#F2A900" fill="#F2A900" fill-rule="nonzero"></path>
                <path d="M0,181 C0,174.096552 5.65258065,168.5 12.6290323,168.5 L54,168.5 L54,193.5 L12.6290323,193.5 C5.65258065,193.5 0,187.903448 0,181 Z" id="Path-Copy-30" stroke="#F2A900" fill="#F2A900" fill-rule="nonzero"></path>
                <path d="M0,225 C0,218.096552 5.65258065,212.5 12.6290323,212.5 L54,212.5 L54,237.5 L12.6290323,237.5 C5.65258065,237.5 0,231.903448 0,225 Z" id="Path-Copy-32" stroke="#F2A900" fill="#F2A900" fill-rule="nonzero"></path>
                <path d="M55,80.5 L95.6048387,80.5 C102.452097,80.5 108,86.0965517 108,93 C108,99.9034483 102.452097,105.5 95.6048387,105.5 L55,105.5 L55,80.5 Z" id="Path-Copy-27" stroke="#F2A900"></path>
                <path d="M55,124.5 L95.6048387,124.5 C102.452097,124.5 108,130.096552 108,137 C108,143.903448 102.452097,149.5 95.6048387,149.5 L55,149.5 L55,124.5 Z" id="Path-Copy-29" stroke="#F2A900"></path>
                <path d="M55,168.5 L95.6048387,168.5 C102.452097,168.5 108,174.096552 108,181 C108,187.903448 102.452097,193.5 95.6048387,193.5 L55,193.5 L55,168.5 Z" id="Path-Copy-31" stroke="#F2A900"></path>
                <path d="M55,212.5 L95.6048387,212.5 C102.452097,212.5 108,218.096552 108,225 C108,231.903448 102.452097,237.5 95.6048387,237.5 L55,237.5 L55,212.5 Z" id="Path-Copy-33" stroke="#F2A900"></path>
                <text id="Turn-On" font-family="Poppins-Bold, Poppins" font-size="8" font-weight="bold" fill="#262524">
                    <tspan x="10" y="94.5">Turn On</tspan>
                </text>
                <text id="Turn-On" font-family="Poppins-Bold, Poppins" font-size="8" font-weight="bold" fill="#262524">
                    <tspan x="10" y="138.5">Turn On</tspan>
                </text>
                <text id="Turn-On" font-family="Poppins-Bold, Poppins" font-size="8" font-weight="bold" fill="#262524">
                    <tspan x="10" y="182.5">Turn On</tspan>
                </text>
                <text id="Turn-On" font-family="Poppins-Bold, Poppins" font-size="8" font-weight="bold" fill="#262524">
                    <tspan x="10" y="226.5">Turn On</tspan>
                </text>
                <text id="Turn-Off" font-family="Poppins-Medium, Poppins" font-size="8" font-weight="400" fill="#979797">
                    <tspan x="63" y="94.5">Turn Off</tspan>
                </text>
                <text id="Turn-Off" font-family="Poppins-Medium, Poppins" font-size="8" font-weight="400" fill="#979797">
                    <tspan x="63" y="138.5">Turn Off</tspan>
                </text>
                <text id="Turn-Off" font-family="Poppins-Medium, Poppins" font-size="8" font-weight="400" fill="#979797">
                    <tspan x="63" y="182.5">Turn Off</tspan>
                </text>
                <text id="Turn-Off" font-family="Poppins-Medium, Poppins" font-size="8" font-weight="400" fill="#979797">
                    <tspan x="63" y="226.5">Turn Off</tspan>
                </text>
                <circle id="Oval-Copy-2" stroke="#F2A900" fill-rule="nonzero" cx="91.5" cy="56" r="9"></circle>
                <circle id="Oval-Copy-3" stroke="#F2A900" fill-rule="nonzero" cx="34.5" cy="56" r="9"></circle>
                <polygon id="Path-Copy-23" fill="#F2A900" fill-rule="nonzero" points="94.5 56.7176471 92.2731092 56.7176471 92.2731092 59 90.7184874 59 90.7184874 56.7176471 88.5 56.7176471 88.5 55.2823529 90.7184874 55.2823529 90.7184874 53 92.2731092 53 92.2731092 55.2823529 94.5 55.2823529"></polygon>
                <polygon id="Path-Copy-24" fill="#F2A900" fill-rule="nonzero" points="36.5 55 36.5 57 31.5 57 31.5 55"></polygon>
                <rect id="Rectangle-Copy-10" fill="#2D2D2A" fill-rule="nonzero" x="3.5" y="0" width="107" height="30" rx="15"></rect>
                <polygon id="Path-Copy-25" fill="#F2A900" fill-rule="nonzero" points="93 19 98.5 13 87.5 13"></polygon>
                <text id="—" font-family="Poppins-Bold, Poppins" font-size="10" font-weight="bold" fill="#FFFFFF">
                    <tspan x="27.5" y="18.3333333">—</tspan>
                </text>
                <text id="25" font-family="Poppins-Bold, Poppins" font-size="11" font-weight="bold" fill="#FFFFFF">
                    <tspan x="57.5" y="60.3333333">25</tspan>
                </text>
            </g>
        </g>
    </g>
</svg>