<?xml version="1.0" encoding="UTF-8"?>
<svg width="24px" height="36px" viewBox="0 0 24 36" version="1.1" xmlns="http://www.w3.org/2000/svg" xmlns:xlink="http://www.w3.org/1999/xlink">
    <title>dehumidifier</title>
    <g id="Page-1" stroke="none" stroke-width="1" fill="none" fill-rule="evenodd" opacity="0.5">
        <g id="Batch-Command" transform="translate(-724.000000, -426.000000)" fill="#FFFFFF">
            <path d="M747.999136,446 L748,458.381083 C748,460.371066 746.799655,462 745.333333,462 L726.66753,462 C725.201209,462 724.000864,460.371066 724.000864,458.381083 L724,446 L747.999136,446 Z M736.001024,448 C735.485159,448 735.057318,448.141305 735.006141,448.32147 L735,448.358562 L735,457.642321 C735,457.839265 735.450358,458 736.001024,458 C736.515865,458 736.942682,457.858695 736.994882,457.67853 L737,457.642321 L737,448.358562 C737,448.160735 736.549642,448 736.001024,448 Z M745.386874,426 C746.821244,426 747.98532,427.129124 747.98791,428.523776 L748,435.858419 L747.999136,445 L724,445 L724.000864,435.858419 L724.012953,428.522927 C724.015544,427.129124 725.178756,426 726.613126,426 L745.386874,426 Z M745.421506,441.000824 L726.57762,441.000824 C726.251671,441.003298 726,441.021434 726,441.043693 L726,441.957131 C726,441.981039 726.295364,442 726.660637,442 L745.421506,442 C745.747455,441.997527 746,441.97939 746,441.957131 L746,441.043693 C746,441.019786 745.703762,441 745.338489,441 L745.421506,441.000824 Z M745.338489,439 L726.57762,439 C726.251671,439.003298 726,439.021434 726,439.043693 L726,439.956307 C726,439.980214 726.295364,440 726.660637,440 L745.421506,440 C745.747455,439.996702 746,439.978566 746,439.956307 L746,439.043693 C746,439.019786 745.703762,439 745.338489,439 Z M745.421506,437.000824 L726.57762,437.000824 C726.251671,437.003295 726,437.021417 726,437.043657 L726,437.956343 C726,437.980231 726.295364,438 726.660637,438 L745.338489,438 C745.703762,438 746,437.980231 746,437.956343 L746,437.043657 C746,437.019769 745.703762,437 745.338489,437 L745.421506,437.000824 Z M745.338489,435 L726.57762,435 C726.251671,435.003298 726,435.021434 726,435.043693 L726,435.956307 C726,435.981039 726.295364,436 726.660637,436 L745.338489,436 C745.703762,436 746,435.981039 746,435.956307 L746,435.043693 C746,435.019786 745.703762,435 745.338489,435 Z M745.338489,433 L726.660637,433 C726.295364,433 726,433.018961 726,433.042869 L726,433.956307 C726,433.980214 726.295364,434 726.660637,434 L745.338489,434 C745.703762,434 746,433.980214 746,433.956307 L746,433.042869 C746,433.018961 745.703762,433 745.338489,433 Z M745.421506,431.000824 L726.57762,431.000824 C726.251671,431.003298 726,431.021434 726,431.043693 L726,431.957131 C726,431.981039 726.295364,432 726.660637,432 L745.421506,432 C745.747455,431.997527 746,431.97939 746,431.957131 L746,431.043693 C746,431.019786 745.703762,431 745.338489,431 L745.421506,431.000824 Z M745.338489,429 L726.57762,429 C726.251671,429.002473 726,429.021434 726,429.043693 L726,429.956307 C726,429.980214 726.295364,430 726.660637,430 L745.421506,430 C745.747455,429.996702 746,429.978566 746,429.956307 L746,429.043693 C746,429.018961 745.703762,429 745.338489,429 Z" id="dehumidifier"></path>
        </g>
    </g>
</svg>